# Fdb version 3
["bibtex gloryduck_dSp_technote"] 1631629944 "gloryduck_dSp_technote.aux" "gloryduck_dSp_technote.bbl" "gloryduck_dSp_technote" 1631630215
  "C:/Users/anolo/AppData/Local/Programs/MiKTeX/bibtex/bst/bibtex/ieeetr.bst" 1291867944 18361 1a00e58565e7f19bf2b3e1bfb82254ae ""
  "gloryduck_dSp_technote.aux" 1631630201 14156 909e20dce94ce9b590fa9adcb71fb82d "pdflatex"
  "refs.bib" 1631628848 44896 9efeb3c606c30f869e3e14f037673c6f ""
  (generated)
  "gloryduck_dSp_technote.bbl"
  "gloryduck_dSp_technote.blg"
["pdflatex"] 1631630199 "c:/Users/anolo/Documents/RESEARCH/Graduate/HAWC/Glory Duck/gd-tech-doc/gloryduck_dSp_technote.tex" "gloryduck_dSp_technote.pdf" "gloryduck_dSp_technote" 1631630215
  "C:/Users/anolo/AppData/Local/MiKTeX/fonts/tfm/public/rsfs/rsfs10.tfm" 1631628207 688 37338d6ab346c2f1466b29e195316aa4 ""
  "C:/Users/anolo/AppData/Local/MiKTeX/fonts/tfm/public/rsfs/rsfs5.tfm" 1631628208 684 3a51bd4fd9600428d5264cf25f04bb9a ""
  "C:/Users/anolo/AppData/Local/MiKTeX/fonts/tfm/public/rsfs/rsfs7.tfm" 1631628209 692 1b6510779f0f05e9cbf03e0f6c8361e6 ""
  "C:/Users/anolo/AppData/Local/MiKTeX/miktex/data/le/pdftex/pdflatex.fmt" 1631624953 9715384 69cf5805163aeef18fbbafbf7ab025c3 ""
  "C:/Users/anolo/AppData/Local/MiKTeX/pdftex/config/pdftex.map" 1631629259 82507 a9eef8696c92627b87e9975edea03b2a ""
  "C:/Users/anolo/AppData/Local/Programs/MiKTeX/fonts/enc/dvips/base/8r.enc" 1458473887 4993 80dc9bab7f31fb78a000ccfed0e27cab ""
  "C:/Users/anolo/AppData/Local/Programs/MiKTeX/fonts/tfm/adobe/helvetic/phvr7t.tfm" 1136793854 2520 53e01eef820ca829e42c1333c3fd02b9 ""
  "C:/Users/anolo/AppData/Local/Programs/MiKTeX/fonts/tfm/adobe/helvetic/phvr8r.tfm" 1136793854 4712 9ef4d7d106579d4b136e1529e1a4533c ""
  "C:/Users/anolo/AppData/Local/Programs/MiKTeX/fonts/tfm/adobe/times/ptmb7t.tfm" 1136793854 2172 fd0c924230362ff848a33632ed45dc23 ""
  "C:/Users/anolo/AppData/Local/Programs/MiKTeX/fonts/tfm/adobe/times/ptmb8r.tfm" 1136793854 4524 6bce29db5bc272ba5f332261583fee9c ""
  "C:/Users/anolo/AppData/Local/Programs/MiKTeX/fonts/tfm/adobe/times/ptmr7t.tfm" 1136793854 2124 2601a75482e9426d33db523edf23570a ""
  "C:/Users/anolo/AppData/Local/Programs/MiKTeX/fonts/tfm/adobe/times/ptmr8c.tfm" 1136793854 1352 fa28a7e6d323c65ce7d13d5342ff6be2 ""
  "C:/Users/anolo/AppData/Local/Programs/MiKTeX/fonts/tfm/adobe/times/ptmr8r.tfm" 1136793854 4408 25b74d011a4c66b7f212c0cc3c90061b ""
  "C:/Users/anolo/AppData/Local/Programs/MiKTeX/fonts/tfm/adobe/times/ptmrc7t.tfm" 1136793854 2680 312a2d12b1f1df8ee0212e7ba1962402 ""
  "C:/Users/anolo/AppData/Local/Programs/MiKTeX/fonts/tfm/adobe/times/ptmri7t.tfm" 1136793854 2288 f478fc8fed18759effb59f3dad7f3084 ""
  "C:/Users/anolo/AppData/Local/Programs/MiKTeX/fonts/tfm/adobe/times/ptmri8r.tfm" 1136793854 4640 532ca3305aad10cc01d769f3f91f1029 ""
  "C:/Users/anolo/AppData/Local/Programs/MiKTeX/fonts/tfm/public/amsfonts/cmextra/cmbsy5.tfm" 1233955448 1120 1e8878807317373affa7f7bba4cf2f6a ""
  "C:/Users/anolo/AppData/Local/Programs/MiKTeX/fonts/tfm/public/amsfonts/cmextra/cmbsy6.tfm" 1233955448 1124 14ccf5552bc7f77ca02a8a402bea8bfb ""
  "C:/Users/anolo/AppData/Local/Programs/MiKTeX/fonts/tfm/public/amsfonts/cmextra/cmbsy7.tfm" 1233955448 1120 7f9f170e8aa57527ad6c49feafd45d54 ""
  "C:/Users/anolo/AppData/Local/Programs/MiKTeX/fonts/tfm/public/amsfonts/cmextra/cmbsy9.tfm" 1233955448 1112 cbc11b646ccc26599775160605aaee3a ""
  "C:/Users/anolo/AppData/Local/Programs/MiKTeX/fonts/tfm/public/amsfonts/cmextra/cmex7.tfm" 1233955448 1004 54797486969f23fa377b128694d548df ""
  "C:/Users/anolo/AppData/Local/Programs/MiKTeX/fonts/tfm/public/amsfonts/cmextra/cmex9.tfm" 1234368820 996 a18840b13b499c08ac2de96a99eda4bc ""
  "C:/Users/anolo/AppData/Local/Programs/MiKTeX/fonts/tfm/public/amsfonts/cmextra/cmmib5.tfm" 1233955448 1496 c79f6914c6d39ffb3759967363d1be79 ""
  "C:/Users/anolo/AppData/Local/Programs/MiKTeX/fonts/tfm/public/amsfonts/cmextra/cmmib6.tfm" 1233955448 1516 a3bf6a5e7ec4401b1f52092dfaaed242 ""
  "C:/Users/anolo/AppData/Local/Programs/MiKTeX/fonts/tfm/public/amsfonts/cmextra/cmmib7.tfm" 1233955448 1508 6e807ff901c35a5f1fde0ca275533df8 ""
  "C:/Users/anolo/AppData/Local/Programs/MiKTeX/fonts/tfm/public/amsfonts/cmextra/cmmib9.tfm" 1233955448 1528 159d57adcba064aab4277245c826577d ""
  "C:/Users/anolo/AppData/Local/Programs/MiKTeX/fonts/tfm/public/amsfonts/symbols/msam10.tfm" 1233955454 916 f87d7c45f9c908e672703b83b72241a3 ""
  "C:/Users/anolo/AppData/Local/Programs/MiKTeX/fonts/tfm/public/amsfonts/symbols/msam5.tfm" 1233955454 924 9904cf1d39e9767e7a3622f2a125a565 ""
  "C:/Users/anolo/AppData/Local/Programs/MiKTeX/fonts/tfm/public/amsfonts/symbols/msam7.tfm" 1233955454 928 2dc8d444221b7a635bb58038579b861a ""
  "C:/Users/anolo/AppData/Local/Programs/MiKTeX/fonts/tfm/public/amsfonts/symbols/msbm10.tfm" 1233955454 908 2921f8a10601f252058503cc6570e581 ""
  "C:/Users/anolo/AppData/Local/Programs/MiKTeX/fonts/tfm/public/amsfonts/symbols/msbm5.tfm" 1233955454 940 75ac932a52f80982a9f8ea75d03a34cf ""
  "C:/Users/anolo/AppData/Local/Programs/MiKTeX/fonts/tfm/public/amsfonts/symbols/msbm7.tfm" 1233955454 940 228d6584342e91276bf566bcf9716b83 ""
  "C:/Users/anolo/AppData/Local/Programs/MiKTeX/fonts/tfm/public/cm/cmbsy10.tfm" 1136768653 1116 4e6ba9d7914baa6482fd69f67d126380 ""
  "C:/Users/anolo/AppData/Local/Programs/MiKTeX/fonts/tfm/public/cm/cmbx10.tfm" 1136768653 1328 c834bbb027764024c09d3d2bf908b5f0 ""
  "C:/Users/anolo/AppData/Local/Programs/MiKTeX/fonts/tfm/public/cm/cmbx5.tfm" 1136768653 1332 f817c21a1ba54560425663374f1b651a ""
  "C:/Users/anolo/AppData/Local/Programs/MiKTeX/fonts/tfm/public/cm/cmbx6.tfm" 1136768653 1344 8a0be4fe4d376203000810ad4dc81558 ""
  "C:/Users/anolo/AppData/Local/Programs/MiKTeX/fonts/tfm/public/cm/cmbx7.tfm" 1136768653 1336 3125ccb448c1a09074e3aa4a9832f130 ""
  "C:/Users/anolo/AppData/Local/Programs/MiKTeX/fonts/tfm/public/cm/cmbx9.tfm" 1136768653 1328 5442e22a7072966dbaf88ca900acf3f0 ""
  "C:/Users/anolo/AppData/Local/Programs/MiKTeX/fonts/tfm/public/cm/cmmi6.tfm" 1136768653 1512 f21f83efb36853c0b70002322c1ab3ad ""
  "C:/Users/anolo/AppData/Local/Programs/MiKTeX/fonts/tfm/public/cm/cmmi9.tfm" 1136768653 1524 d89e2d087a9828407a196f428428ef4a ""
  "C:/Users/anolo/AppData/Local/Programs/MiKTeX/fonts/tfm/public/cm/cmmib10.tfm" 1136768653 1524 554068197b70979a55370e6c6495f441 ""
  "C:/Users/anolo/AppData/Local/Programs/MiKTeX/fonts/tfm/public/cm/cmr6.tfm" 1136768653 1300 b62933e007d01cfd073f79b963c01526 ""
  "C:/Users/anolo/AppData/Local/Programs/MiKTeX/fonts/tfm/public/cm/cmr9.tfm" 1136768653 1292 6b21b9c2c7bebb38aa2273f7ca0fb3af ""
  "C:/Users/anolo/AppData/Local/Programs/MiKTeX/fonts/tfm/public/cm/cmsy6.tfm" 1136768653 1116 933a60c408fc0a863a92debe84b2d294 ""
  "C:/Users/anolo/AppData/Local/Programs/MiKTeX/fonts/tfm/public/cm/cmsy9.tfm" 1136768653 1116 25a7bf822c58caf309a702ef79f4afbb ""
  "C:/Users/anolo/AppData/Local/Programs/MiKTeX/fonts/tfm/public/cm/cmti10.tfm" 1136768653 1480 aa8e34af0eb6a2941b776984cf1dfdc4 ""
  "C:/Users/anolo/AppData/Local/Programs/MiKTeX/fonts/tfm/public/cm/cmti7.tfm" 1136768653 1492 86331993fe614793f5e7e755835c31c5 ""
  "C:/Users/anolo/AppData/Local/Programs/MiKTeX/fonts/tfm/public/cm/cmtt10.tfm" 1136768653 768 1321e9409b4137d6fb428ac9dc956269 ""
  "C:/Users/anolo/AppData/Local/Programs/MiKTeX/fonts/type1/public/amsfonts/cm/cmbsy10.pfb" 1247596666 34793 ae7a3e2775dc0ce90475eeabcb46f9f1 ""
  "C:/Users/anolo/AppData/Local/Programs/MiKTeX/fonts/type1/public/amsfonts/cm/cmbx10.pfb" 1247596666 34811 78b52f49e893bcba91bd7581cdc144c0 ""
  "C:/Users/anolo/AppData/Local/Programs/MiKTeX/fonts/type1/public/amsfonts/cm/cmex10.pfb" 1247596667 30251 6afa5cb1d0204815a708a080681d4674 ""
  "C:/Users/anolo/AppData/Local/Programs/MiKTeX/fonts/type1/public/amsfonts/cm/cmmi10.pfb" 1247596667 36299 5f9df58c2139e7edcf37c8fca4bd384d ""
  "C:/Users/anolo/AppData/Local/Programs/MiKTeX/fonts/type1/public/amsfonts/cm/cmmi5.pfb" 1247596667 37912 07513ec114ac737ab54cea0152f4424b ""
  "C:/Users/anolo/AppData/Local/Programs/MiKTeX/fonts/type1/public/amsfonts/cm/cmmi6.pfb" 1247596666 37166 8ab3487cbe3ab49ebce74c29ea2418db ""
  "C:/Users/anolo/AppData/Local/Programs/MiKTeX/fonts/type1/public/amsfonts/cm/cmmi7.pfb" 1247596667 36281 c355509802a035cadc5f15869451dcee ""
  "C:/Users/anolo/AppData/Local/Programs/MiKTeX/fonts/type1/public/amsfonts/cm/cmmi9.pfb" 1247596667 36094 798f80770b3b148ceedd006d487db67c ""
  "C:/Users/anolo/AppData/Local/Programs/MiKTeX/fonts/type1/public/amsfonts/cm/cmmib10.pfb" 1247596666 36912 b448ef9ad9d7228ec3c6e71005136d55 ""
  "C:/Users/anolo/AppData/Local/Programs/MiKTeX/fonts/type1/public/amsfonts/cm/cmr10.pfb" 1247596667 35752 024fb6c41858982481f6968b5fc26508 ""
  "C:/Users/anolo/AppData/Local/Programs/MiKTeX/fonts/type1/public/amsfonts/cm/cmr5.pfb" 1247596667 31809 8670ca339bf94e56da1fc21c80635e2a ""
  "C:/Users/anolo/AppData/Local/Programs/MiKTeX/fonts/type1/public/amsfonts/cm/cmr6.pfb" 1247596667 32734 69e00a6b65cedb993666e42eedb3d48f ""
  "C:/Users/anolo/AppData/Local/Programs/MiKTeX/fonts/type1/public/amsfonts/cm/cmr7.pfb" 1247596667 32762 7fee39e011c23b3589931effd97b9702 ""
  "C:/Users/anolo/AppData/Local/Programs/MiKTeX/fonts/type1/public/amsfonts/cm/cmr9.pfb" 1247596666 33993 9b89b85fd2d9df0482bd47194d1d3bf3 ""
  "C:/Users/anolo/AppData/Local/Programs/MiKTeX/fonts/type1/public/amsfonts/cm/cmsy10.pfb" 1247596667 32569 5e5ddc8df908dea60932f3c484a54c0d ""
  "C:/Users/anolo/AppData/Local/Programs/MiKTeX/fonts/type1/public/amsfonts/cm/cmsy5.pfb" 1247596666 32915 7bf7720c61a5b3a7ff25b0964421c9b6 ""
  "C:/Users/anolo/AppData/Local/Programs/MiKTeX/fonts/type1/public/amsfonts/cm/cmsy6.pfb" 1247596667 32587 65067f817f408bc71a7312f3d9828a9b ""
  "C:/Users/anolo/AppData/Local/Programs/MiKTeX/fonts/type1/public/amsfonts/cm/cmsy7.pfb" 1247596666 32716 08e384dc442464e7285e891af9f45947 ""
  "C:/Users/anolo/AppData/Local/Programs/MiKTeX/fonts/type1/public/amsfonts/cm/cmsy9.pfb" 1247596666 32442 c975af247b6702f7ca0c299af3616b80 ""
  "C:/Users/anolo/AppData/Local/Programs/MiKTeX/fonts/type1/public/amsfonts/cm/cmti10.pfb" 1247596667 37944 359e864bd06cde3b1cf57bb20757fb06 ""
  "C:/Users/anolo/AppData/Local/Programs/MiKTeX/fonts/type1/public/amsfonts/cm/cmtt10.pfb" 1247596667 31099 342ef5a582aacbd3346f3cf4579679fa ""
  "C:/Users/anolo/AppData/Local/Programs/MiKTeX/fonts/type1/urw/helvetic/uhvr8a.pfb" 1136874948 44648 23115b2a545ebfe2c526c3ca99db8b95 ""
  "C:/Users/anolo/AppData/Local/Programs/MiKTeX/fonts/type1/urw/times/utmb8a.pfb" 1136874948 44729 fea0975e20ec51c992338362f05f1146 ""
  "C:/Users/anolo/AppData/Local/Programs/MiKTeX/fonts/type1/urw/times/utmr8a.pfb" 1136874948 46026 687528a208fbfc1f00832bb96cccebbb ""
  "C:/Users/anolo/AppData/Local/Programs/MiKTeX/fonts/type1/urw/times/utmri8a.pfb" 1136874948 45458 504e2b06fa82109d168c7a0afb09e145 ""
  "C:/Users/anolo/AppData/Local/Programs/MiKTeX/fonts/vf/adobe/helvetic/phvr7t.vf" 1136793854 1372 dc841a9f00a1a11b1443367ae6c5588e ""
  "C:/Users/anolo/AppData/Local/Programs/MiKTeX/fonts/vf/adobe/times/ptmb7t.vf" 1136793854 1372 788387fea833ef5963f4c5bffe33eb89 ""
  "C:/Users/anolo/AppData/Local/Programs/MiKTeX/fonts/vf/adobe/times/ptmr7t.vf" 1136793854 1380 0ea3a3370054be6da6acd929ec569f06 ""
  "C:/Users/anolo/AppData/Local/Programs/MiKTeX/fonts/vf/adobe/times/ptmr8c.vf" 1136793854 3556 8a9a6dcbcd146ef985683f677f4758a6 ""
  "C:/Users/anolo/AppData/Local/Programs/MiKTeX/fonts/vf/adobe/times/ptmrc7t.vf" 1136793854 1948 7330aeef3af211edff3b35fb2c12a0fd ""
  "C:/Users/anolo/AppData/Local/Programs/MiKTeX/fonts/vf/adobe/times/ptmri7t.vf" 1136793854 1384 a9d8adaf491ce34e5fba99dc7bbe5f39 ""
  "C:/Users/anolo/AppData/Local/Programs/MiKTeX/tex/context/base/mkii/supp-pdf.mkii" 1580393758 71627 94eb9990bed73c364d7f53f960cc8c5b ""
  "C:/Users/anolo/AppData/Local/Programs/MiKTeX/tex/generic/atbegshi/atbegshi.sty" 1575574700 24708 5584a51a7101caf7e6bbf1fc27d8f7b1 ""
  "C:/Users/anolo/AppData/Local/Programs/MiKTeX/tex/generic/bigintcalc/bigintcalc.sty" 1576437202 40635 c40361e206be584d448876bba8a64a3b ""
  "C:/Users/anolo/AppData/Local/Programs/MiKTeX/tex/generic/bitset/bitset.sty" 1575930176 33961 6b5c75130e435b2bfdb9f480a09a39f9 ""
  "C:/Users/anolo/AppData/Local/Programs/MiKTeX/tex/generic/etexcmds/etexcmds.sty" 1576437238 7734 b98cbb34c81f667027c1e3ebdbfce34b ""
  "C:/Users/anolo/AppData/Local/Programs/MiKTeX/tex/generic/gettitlestring/gettitlestring.sty" 1576437266 8371 9d55b8bd010bc717624922fb3477d92e ""
  "C:/Users/anolo/AppData/Local/Programs/MiKTeX/tex/generic/iftex/iftex.sty" 1583527000 6501 4011d89d9621e0b0901138815ba5ff29 ""
  "C:/Users/anolo/AppData/Local/Programs/MiKTeX/tex/generic/iftex/ifvtex.sty" 1583527000 1057 525c2192b5febbd8c1f662c9468335bb ""
  "C:/Users/anolo/AppData/Local/Programs/MiKTeX/tex/generic/infwarerr/infwarerr.sty" 1575403108 8356 7bbb2c2373aa810be568c29e333da8ed ""
  "C:/Users/anolo/AppData/Local/Programs/MiKTeX/tex/generic/intcalc/intcalc.sty" 1576437364 31769 002a487f55041f8e805cfbf6385ffd97 ""
  "C:/Users/anolo/AppData/Local/Programs/MiKTeX/tex/generic/kvdefinekeys/kvdefinekeys.sty" 1576766904 5412 d5a2436094cd7be85769db90f29250a6 ""
  "C:/Users/anolo/AppData/Local/Programs/MiKTeX/tex/generic/kvsetkeys/kvsetkeys.sty" 1576437420 13807 952b0226d4efca026f0e19dd266dcc22 ""
  "C:/Users/anolo/AppData/Local/Programs/MiKTeX/tex/generic/ltxcmds/ltxcmds.sty" 1601735609 18568 4409f8f50cd365c68e684407e5350b1b ""
  "C:/Users/anolo/AppData/Local/Programs/MiKTeX/tex/generic/pdfescape/pdfescape.sty" 1575930300 19007 15924f7228aca6c6d184b115f4baa231 ""
  "C:/Users/anolo/AppData/Local/Programs/MiKTeX/tex/generic/pdftexcmds/pdftexcmds.sty" 1623005277 20089 80423eac55aa175305d35b49e04fe23b ""
  "C:/Users/anolo/AppData/Local/Programs/MiKTeX/tex/generic/uniquecounter/uniquecounter.sty" 1576437612 7008 f92eaa0a3872ed622bbf538217cd2ab7 ""
  "C:/Users/anolo/AppData/Local/Programs/MiKTeX/tex/latex/00miktex/epstopdf-sys.cfg" 1616067285 584 2a1075dd71571459f59146da9f7502ad ""
  "C:/Users/anolo/AppData/Local/Programs/MiKTeX/tex/latex/amsfonts/amsfonts.sty" 1358201372 5949 3f3fd50a8cc94c3d4cbf4fc66cd3df1c ""
  "C:/Users/anolo/AppData/Local/Programs/MiKTeX/tex/latex/amsfonts/amssymb.sty" 1358201372 13829 94730e64147574077f8ecfea9bb69af4 ""
  "C:/Users/anolo/AppData/Local/Programs/MiKTeX/tex/latex/amsfonts/umsa.fd" 1358201372 961 6518c6525a34feb5e8250ffa91731cff ""
  "C:/Users/anolo/AppData/Local/Programs/MiKTeX/tex/latex/amsfonts/umsb.fd" 1358201372 961 d02606146ba5601b5645f987c92e6193 ""
  "C:/Users/anolo/AppData/Local/Programs/MiKTeX/tex/latex/amsmath/amsbsy.sty" 1622999195 2222 da905dc1db75412efd2d8f67739f0596 ""
  "C:/Users/anolo/AppData/Local/Programs/MiKTeX/tex/latex/amsmath/amsgen.sty" 1622999196 4173 bc0410bcccdff806d6132d3c1ef35481 ""
  "C:/Users/anolo/AppData/Local/Programs/MiKTeX/tex/latex/amsmath/amsmath.sty" 1622999197 87375 a806706bbc32b3e8482f6d87aeffbf76 ""
  "C:/Users/anolo/AppData/Local/Programs/MiKTeX/tex/latex/amsmath/amsopn.sty" 1622999197 4128 c11da5c2df397f39d5783fc9307689d0 ""
  "C:/Users/anolo/AppData/Local/Programs/MiKTeX/tex/latex/amsmath/amstext.sty" 1622999197 2444 b015525572ea0d0165d6ce81ba5e5259 ""
  "C:/Users/anolo/AppData/Local/Programs/MiKTeX/tex/latex/arydshln/arydshln.sty" 1550948819 47533 ffecd4a08bc2c823f27a610f95aa12d3 ""
  "C:/Users/anolo/AppData/Local/Programs/MiKTeX/tex/latex/atveryend/atveryend.sty" 1576104710 19336 ce7ae9438967282886b3b036cfad1e4d ""
  "C:/Users/anolo/AppData/Local/Programs/MiKTeX/tex/latex/auxhook/auxhook.sty" 1576542332 3935 57aa3c3e203a5c2effb4d2bd2efbc323 ""
  "C:/Users/anolo/AppData/Local/Programs/MiKTeX/tex/latex/base/article.cls" 1623741700 20144 0fe9067680219956678b52f12bdce8ee ""
  "C:/Users/anolo/AppData/Local/Programs/MiKTeX/tex/latex/base/atbegshi-ltx.sty" 1623741700 3034 7076a43c47446700860d2aebb65ebed5 ""
  "C:/Users/anolo/AppData/Local/Programs/MiKTeX/tex/latex/base/atveryend-ltx.sty" 1623741700 2459 f9456a3cd988c2865f64e327cdb6f7a0 ""
  "C:/Users/anolo/AppData/Local/Programs/MiKTeX/tex/latex/base/ifthen.sty" 1623741700 5157 f308c7c04889e16c588e78aa42599fae ""
  "C:/Users/anolo/AppData/Local/Programs/MiKTeX/tex/latex/base/size10.clo" 1623741700 8448 05e1c6a8fc5db344ed9d7aeb299acbce ""
  "C:/Users/anolo/AppData/Local/Programs/MiKTeX/tex/latex/booktabs/booktabs.sty" 1579097235 6253 f1cb470c9199e7110a27851508ed7a5c ""
  "C:/Users/anolo/AppData/Local/Programs/MiKTeX/tex/latex/caption/caption.sty" 1603740596 51746 e89c4da670ba533e6ab38e045ce6d1d9 ""
  "C:/Users/anolo/AppData/Local/Programs/MiKTeX/tex/latex/caption/caption3.sty" 1603740596 67929 d50ae850e1d9604065e8337a75a41029 ""
  "C:/Users/anolo/AppData/Local/Programs/MiKTeX/tex/latex/cleveref/cleveref.sty" 1524385854 337536 7fc6b003158402a4c694bc0a1b729308 ""
  "C:/Users/anolo/AppData/Local/Programs/MiKTeX/tex/latex/epstopdf-pkg/epstopdf-base.sty" 1623003186 13886 d1306dcf79a944f6988e688c1785f9ce ""
  "C:/Users/anolo/AppData/Local/Programs/MiKTeX/tex/latex/fancyhdr/fancyhdr.sty" 1612005444 17086 7ed8cbc4d361ec87392817e0dd4f65ec ""
  "C:/Users/anolo/AppData/Local/Programs/MiKTeX/tex/latex/float/float.sty" 1469023953 6916 16d2656a1984957e674b149555f1ea1d ""
  "C:/Users/anolo/AppData/Local/Programs/MiKTeX/tex/latex/geometry/geometry.cfg" 1578057145 1104 7ac475a4e3466b0b43e138e9356bda83 ""
  "C:/Users/anolo/AppData/Local/Programs/MiKTeX/tex/latex/geometry/geometry.sty" 1578057145 42759 9cf6c5257b1bc7af01a58859749dd37a ""
  "C:/Users/anolo/AppData/Local/Programs/MiKTeX/tex/latex/graphics-cfg/color.cfg" 1465894292 1213 620bba36b25224fa9b7e1ccb4ecb76fd ""
  "C:/Users/anolo/AppData/Local/Programs/MiKTeX/tex/latex/graphics-cfg/graphics.cfg" 1465894292 1224 978390e9c2234eab29404bc21b268d1e ""
  "C:/Users/anolo/AppData/Local/Programs/MiKTeX/tex/latex/graphics-def/pdftex.def" 1622562294 19103 48d29b6e2a64cb717117ef65f107b404 ""
  "C:/Users/anolo/AppData/Local/Programs/MiKTeX/tex/latex/graphics/dvipsnam.def" 1623003324 4995 8040f614c8de8318a0b5b2dea8a3fcef ""
  "C:/Users/anolo/AppData/Local/Programs/MiKTeX/tex/latex/graphics/graphics.sty" 1623003325 18399 7e40f80366dffb22c0e7b70517db5cb4 ""
  "C:/Users/anolo/AppData/Local/Programs/MiKTeX/tex/latex/graphics/graphicx.sty" 1623003325 7972 81ea1752666dc7c1e93f0b4c10665ca1 ""
  "C:/Users/anolo/AppData/Local/Programs/MiKTeX/tex/latex/graphics/keyval.sty" 1623003325 2671 4de6781a30211fe0ea4c672e4a2a8166 ""
  "C:/Users/anolo/AppData/Local/Programs/MiKTeX/tex/latex/graphics/lscape.sty" 1623003325 1808 e22d55a4f66156801447813626bd4159 ""
  "C:/Users/anolo/AppData/Local/Programs/MiKTeX/tex/latex/graphics/trig.sty" 1623003325 4007 3bccccf8f35e1bc1ef0f7c55ceeb7713 ""
  "C:/Users/anolo/AppData/Local/Programs/MiKTeX/tex/latex/grfext/grfext.sty" 1575403074 7133 b94bbacbee6e4fdccdc7f810b2aec370 ""
  "C:/Users/anolo/AppData/Local/Programs/MiKTeX/tex/latex/hycolor/hycolor.sty" 1580384392 18571 4c28a13fc3d975e6e81c9bea1d697276 ""
  "C:/Users/anolo/AppData/Local/Programs/MiKTeX/tex/latex/hyperref/hpdftex.def" 1623057842 49890 0bb76a5b745d92e86aed6f3f93e334f0 ""
  "C:/Users/anolo/AppData/Local/Programs/MiKTeX/tex/latex/hyperref/hyperref-langpatches.def" 1623057842 1777 940b1aa83773bc035eb882e8d6842769 ""
  "C:/Users/anolo/AppData/Local/Programs/MiKTeX/tex/latex/hyperref/hyperref.sty" 1623057842 230915 97a8817f13de4e61bbc3592cb2caa995 ""
  "C:/Users/anolo/AppData/Local/Programs/MiKTeX/tex/latex/hyperref/nameref.sty" 1623057842 13242 133e617c5eebffdd05e421624022b267 ""
  "C:/Users/anolo/AppData/Local/Programs/MiKTeX/tex/latex/hyperref/pd1enc.def" 1623057842 14132 c9404e8e78123ef0d1007c34d1d6da51 ""
  "C:/Users/anolo/AppData/Local/Programs/MiKTeX/tex/latex/hyperref/puenc.def" 1623057842 117004 86586f287ddfad919a0a4bd68934277a ""
  "C:/Users/anolo/AppData/Local/Programs/MiKTeX/tex/latex/jknappen/mathrsfs.sty" 930764892 300 12fa6f636b617656f2810ee82cb05015 ""
  "C:/Users/anolo/AppData/Local/Programs/MiKTeX/tex/latex/jknappen/ursfs.fd" 930764886 548 cc4e3557704bfed27c7002773fad6c90 ""
  "C:/Users/anolo/AppData/Local/Programs/MiKTeX/tex/latex/kvoptions/kvoptions.sty" 1602228096 22521 d2fceb764a442a2001d257ef11db7618 ""
  "C:/Users/anolo/AppData/Local/Programs/MiKTeX/tex/latex/l3backend/l3backend-pdftex.def" 1628077986 27662 df2ac0cbce6c3f309d48d78e7c627ccb ""
  "C:/Users/anolo/AppData/Local/Programs/MiKTeX/tex/latex/letltxmacro/letltxmacro.sty" 1575403136 5766 13a9e8766c47f30327caf893ece86ac8 ""
  "C:/Users/anolo/AppData/Local/Programs/MiKTeX/tex/latex/lineno/lineno.sty" 1130951548 151738 8cd767481920f0eb785302dacfc87057 ""
  "C:/Users/anolo/AppData/Local/Programs/MiKTeX/tex/latex/microtype/microtype-pdftex.def" 1615773827 49122 819cbbfdb42a2c0ab10169904d233ac6 ""
  "C:/Users/anolo/AppData/Local/Programs/MiKTeX/tex/latex/microtype/microtype.cfg" 1615773827 25351 a8ea42615c1a2e238f5239107f136d2e ""
  "C:/Users/anolo/AppData/Local/Programs/MiKTeX/tex/latex/microtype/microtype.sty" 1615773827 72985 34bc4da4b01d522411d81e8ba52c722c ""
  "C:/Users/anolo/AppData/Local/Programs/MiKTeX/tex/latex/microtype/mt-cmr.cfg" 1615773827 22870 107e29e10ba62444ef82a9cee93fe3fe ""
  "C:/Users/anolo/AppData/Local/Programs/MiKTeX/tex/latex/microtype/mt-msa.cfg" 1615773827 5893 689137a22345667b6bfab5e3450a5aba ""
  "C:/Users/anolo/AppData/Local/Programs/MiKTeX/tex/latex/microtype/mt-msb.cfg" 1615773827 5558 ce2f9b99e893d638267b0bcd8f4e782a ""
  "C:/Users/anolo/AppData/Local/Programs/MiKTeX/tex/latex/microtype/mt-ptm.cfg" 1615773827 12391 43fdc262e10bcd6c42abaa49894b5ce5 ""
  "C:/Users/anolo/AppData/Local/Programs/MiKTeX/tex/latex/pdflscape/pdflscape.sty" 1575574826 6575 25396d208d8f2b9395d06ef315d5886c ""
  "C:/Users/anolo/AppData/Local/Programs/MiKTeX/tex/latex/psnfss/ot1phv.fd" 1585253778 1736 51f99a09d5536398d3a0ad1d44df9625 ""
  "C:/Users/anolo/AppData/Local/Programs/MiKTeX/tex/latex/psnfss/ot1ptm.fd" 1585253778 1007 15056f4a61917ceed3a44e4ac11fcc52 ""
  "C:/Users/anolo/AppData/Local/Programs/MiKTeX/tex/latex/psnfss/ts1ptm.fd" 1585253778 653 96f56dc5d1ef1fe1121f1cfeec70ee0c ""
  "C:/Users/anolo/AppData/Local/Programs/MiKTeX/tex/latex/refcount/refcount.sty" 1576437552 9878 9e94e8fa600d95f9c7731bb21dfb67a4 ""
  "C:/Users/anolo/AppData/Local/Programs/MiKTeX/tex/latex/rerunfilecheck/rerunfilecheck.sty" 1575574882 9715 b051d5b493d9fe5f4bc251462d039e5f ""
  "C:/Users/anolo/AppData/Local/Programs/MiKTeX/tex/latex/tools/afterpage.sty" 1622550326 4085 5d204adcbe1ad2fc72fe565763c803ee ""
  "C:/Users/anolo/AppData/Local/Programs/MiKTeX/tex/latex/tools/array.sty" 1622550326 12689 a1a7b2795918756dcb9c9cbfacc4d9c7 ""
  "C:/Users/anolo/AppData/Local/Programs/MiKTeX/tex/latex/tools/bm.sty" 1622550326 13197 df0fe9a9695763546b59e02a008447b3 ""
  "C:/Users/anolo/AppData/Local/Programs/MiKTeX/tex/latex/tools/tabularx.sty" 1622550326 7147 5ac8a9ef36411064b1a501137af0fa54 ""
  "C:/Users/anolo/AppData/Local/Programs/MiKTeX/tex/latex/tools/xspace.sty" 1622550326 4545 d84d0b20a11b9c36c6ecf45697be591c ""
  "C:/Users/anolo/AppData/Local/Programs/MiKTeX/tex/latex/units/nicefrac.sty" 1469029150 4163 0462ee5ab265cf59dc15a41a3b883101 ""
  "C:/Users/anolo/AppData/Local/Programs/MiKTeX/tex/latex/units/units.sty" 1469029150 2206 65ad9fb19763b1681bea4cb389fe84f8 ""
  "C:/Users/anolo/AppData/Local/Programs/MiKTeX/tex/latex/url/url.sty" 1388494052 12796 8edb7d69a20b857904dd0ea757c14ec9 ""
  "C:/Users/anolo/AppData/Local/Programs/MiKTeX/tex/latex/was/gensymb.sty" 1081526300 4755 29d19942d7123701aa6a3876b9ba11b1 ""
  "C:/Users/anolo/AppData/Local/Programs/MiKTeX/tex/latex/xcolor/xcolor.sty" 1623005660 55589 34128738f682d033422ca125f82e5d62 ""
  "arxiv.sty" 1631629208 7755 f12f4e37fb88cc7b19e63ecce8ed0185 ""
  "c:/Users/anolo/Documents/RESEARCH/Graduate/HAWC/Glory Duck/gd-tech-doc/gloryduck_dSp_technote.tex" 1631630135 30142 58893016bca400809108c91a5ee4c156 ""
  "gloryduck_dSp_technote.aux" 1631630201 14156 909e20dce94ce9b590fa9adcb71fb82d "pdflatex"
  "gloryduck_dSp_technote.bbl" 1631629944 4033 5004745eb4df3da7f50b72470f1560d6 "bibtex gloryduck_dSp_technote"
  "gloryduck_dSp_technote.out" 1631630201 1990 b01186aae2d5dc55e56e34104b7f7c52 "pdflatex"
  "gloryduck_dSp_technote.tex" 1631630135 30142 58893016bca400809108c91a5ee4c156 ""
  "gloryduck_dSp_technote.toc" 1631630201 1095 0b64b66c36ce4bd4a88b0a02ca518e02 "pdflatex"
  "macro_journals.sty" 1631629164 7102 2d97ce220910dcfba16438ac52144418 ""
  "plots/appendix/BootesI.pdf" 1631627757 21479 dd829f61ed55f08aee727b1fdaf899e9 ""
  "plots/appendix/CanesVenaticiI.pdf" 1631627757 21473 8cbf84817728e4d1604506e27c22b6de ""
  "plots/appendix/CanesVenaticiII.pdf" 1631627757 21659 9f03c9cfa68d048586b11f3d17114899 ""
  "plots/appendix/Carina.pdf" 1631627757 21378 223f38306512d5c9e780680f587a05f9 ""
  "plots/appendix/ComaBerenices.pdf" 1631627756 21198 e09804ae89af61c184b4c411a2620a54 ""
  "plots/appendix/Draco.pdf" 1631627756 21695 1270de8a4c6a0653c508c51e89fca406 ""
  "plots/appendix/Fornax.pdf" 1631627756 21389 d319d0924f772ddc2ad1ebdbfa032eaf ""
  "plots/appendix/Hercules.pdf" 1631627757 21464 c4dc090495e970db94f199028dd06ee0 ""
  "plots/appendix/LeoI.pdf" 1631627757 21217 7ba15450b249a411c83689d0cf71e52c ""
  "plots/appendix/LeoII.pdf" 1631627757 21102 28f9e5c55d39bc538553fe254c415949 ""
  "plots/appendix/LeoIV.pdf" 1631627757 21761 45aff9f1f9112e498105c868055bb71f ""
  "plots/appendix/LeoT.pdf" 1631627757 21023 6d5779580730731bd5fd47143b80494b ""
  "plots/appendix/LeoV.pdf" 1631627757 20958 79edb7beafa17a41cdbba718095a403b ""
  "plots/appendix/Sculptor.pdf" 1631627757 21303 e751398740136813480c4e11e39bea79 ""
  "plots/appendix/SegueI.pdf" 1631627757 22188 56811c3e7db2442c9fcab28a0fa2d0c5 ""
  "plots/appendix/SegueII.pdf" 1631627757 21658 139282b97eecbe9922bcfd343c4aeb71 ""
  "plots/appendix/Sextans.pdf" 1631627757 21225 63cfc08513fe182ac91f93aa35d06ff6 ""
  "plots/appendix/UrsaMajorI.pdf" 1631627757 22185 18c64b0f3c62ebdcdd739f0a1793fca9 ""
  "plots/appendix/UrsaMajorII.pdf" 1631627757 21789 f11227f9166ce1a59ac6a8c85d3eb2c0 ""
  "plots/appendix/UrsaMinor.pdf" 1631627757 21898 da4a7034042165b4e0ebb55e553858f6 ""
  "plots/comparison/Combined_exp_technique_2000GeV_exp1234.pdf" 1631627757 23995 85f7d8679aec1ea826218afba3e44432 ""
  "plots/comparison/GD_limits_WW.pdf" 1631627757 15528 e2a5aea275b878a713540b61aad0cab6 ""
  "plots/comparison/GD_limits_ZZ.pdf" 1631627757 15475 4e67fe119edd686871dc9741c9f9952d ""
  "plots/comparison/GD_limits_bb.pdf" 1631627757 15680 b0dd40bf327bf20b467c1a088fd289e5 ""
  "plots/comparison/GD_limits_ee.pdf" 1631627757 15707 e03f66e2010c870539898e1008fcfba0 ""
  "plots/comparison/GD_limits_gammagamma.pdf" 1631627757 15767 199219e0e4e9629140e4303aa78accf8 ""
  "plots/comparison/GD_limits_mumu.pdf" 1631627757 15710 b12276f3069acfd38b1478ed1f9dfd3d ""
  "plots/comparison/GD_limits_tautau.pdf" 1631627757 15725 f2c1172d0d487fb61c03a7015eefda02 ""
  "plots/comparison/GD_limits_tt.pdf" 1631627757 15403 4adefbd15f9bcafabc1af6f802db777f ""
  "plots/limits/Glory_Duck_Annihilation_WW_Bonnivard_Combination_bands.pdf" 1631627756 15919 b4ea29a3d0f4e996210618c1cef9a4c9 ""
  "plots/limits/Glory_Duck_Annihilation_WW_Geringer-Sameth_Combination_bands.pdf" 1631627756 18233 b81efe2f1add310fbb5c3c18039f054f ""
  "plots/limits/Glory_Duck_Annihilation_ZZ_Bonnivard_Combination_bands.pdf" 1631627756 15536 4c648b3d5a4ed449cda0cf676c10480b ""
  "plots/limits/Glory_Duck_Annihilation_ZZ_Geringer-Sameth_Combination_bands.pdf" 1631627756 17980 af982afcd476a83a87d1bc05c12bba0d ""
  "plots/limits/Glory_Duck_Annihilation_bb_Bonnivard_Combination_bands.pdf" 1631627756 16416 f7323cd6d7cab16f6afa028f2b4bd50c ""
  "plots/limits/Glory_Duck_Annihilation_bb_Geringer-Sameth_Combination_bands.pdf" 1631627756 19592 8fa12937c7814a950d9bac2d29d38c36 ""
  "plots/limits/Glory_Duck_Annihilation_ee_Bonnivard_Combination_bands.pdf" 1631627756 16888 1f7fed8c2b8b4c97ae8a3dcb4bc545ed ""
  "plots/limits/Glory_Duck_Annihilation_ee_Geringer-Sameth_Combination_bands.pdf" 1631627756 18993 6d2df68f2eb1a10b13f2026ecd0095f5 ""
  "plots/limits/Glory_Duck_Annihilation_gammagamma_Bonnivard_Combination_bands.pdf" 1631627756 16429 37fb053e864e95a86a16855f0460d53e ""
  "plots/limits/Glory_Duck_Annihilation_gammagamma_Geringer-Sameth_Combination_bands.pdf" 1631627756 20105 6f3da6c9ccca50e2258e66531550b77c ""
  "plots/limits/Glory_Duck_Annihilation_mumu_Bonnivard_Combination_bands.pdf" 1631627756 16597 a544cc9c2da68352e4dccd580466fe81 ""
  "plots/limits/Glory_Duck_Annihilation_mumu_Geringer-Sameth_Combination_bands.pdf" 1631627756 18913 5b13ecfe5eff79ca127c0fa01ce8ac25 ""
  "plots/limits/Glory_Duck_Annihilation_tautau_Bonnivard_Combination_bands.pdf" 1631627756 16423 879b026b899212cc90b4e18e98aa451a ""
  "plots/limits/Glory_Duck_Annihilation_tautau_Geringer-Sameth_Combination_bands.pdf" 1631627756 18867 b9bc2fae1a084139d4db762e79659609 ""
  "plots/limits/Glory_Duck_Annihilation_tt_Bonnivard_Combination_bands.pdf" 1631627756 15226 cea708995c24277a54269ee12e602c29 ""
  "plots/limits/Glory_Duck_Annihilation_tt_Geringer-Sameth_Combination_bands.pdf" 1631627756 17595 01fee219c5ea9b2264e39685d701327f ""
  (generated)
  "gloryduck_dSp_technote.log"
  "gloryduck_dSp_technote.toc"
  "gloryduck_dSp_technote.pdf"
  "gloryduck_dSp_technote.out"
  "gloryduck_dSp_technote.aux"
