\relax 
\providecommand\hyper@newdestlabel[2]{}
\providecommand\HyperFirstAtBeginDocument{\AtBeginDocument}
\HyperFirstAtBeginDocument{\ifx\hyper@anchor\@undefined
\global\let\oldcontentsline\contentsline
\gdef\contentsline#1#2#3#4{\oldcontentsline{#1}{#2}{#3}}
\global\let\oldnewlabel\newlabel
\gdef\newlabel#1#2{\newlabelxx{#1}#2}
\gdef\newlabelxx#1#2#3#4#5#6{\oldnewlabel{#1}{{#2}{#3}}}
\AtEndDocument{\ifx\hyper@anchor\@undefined
\let\contentsline\oldcontentsline
\let\newlabel\oldnewlabel
\fi}
\fi}
\global\let\hyper@last\relax 
\gdef\HyperFirstAtBeginDocument#1{#1}
\providecommand\HyField@AuxAddToFields[1]{}
\providecommand\HyField@AuxAddToCoFields[2]{}
\citation{Albert_2018}
\citation{Albert_2018}
\citation{Cirelli_2011}
\citation{Geringer_Sameth_2015}
\citation{Abeysekara_2017}
\citation{Abeysekara_2017}
\citation{Cirelli_2011}
\@writefile{toc}{\contentsline {section}{\numberline {1}Introduction}{2}{section.1}\protected@file@percent }
\@writefile{toc}{\contentsline {section}{\numberline {2}Data and Background}{2}{section.2}\protected@file@percent }
\@writefile{toc}{\contentsline {subsection}{\numberline {2.1}Data Set Chosen}{2}{subsection.2.1}\protected@file@percent }
\@writefile{toc}{\contentsline {subsection}{\numberline {2.2}Background Estimation}{2}{subsection.2.2}\protected@file@percent }
\@writefile{toc}{\contentsline {subsection}{\numberline {2.3}Software Tools and Development}{2}{subsection.2.3}\protected@file@percent }
\citation{Cirelli_2011}
\citation{Geringer_Sameth_2015}
\citation{Albert_2018}
\@writefile{toc}{\contentsline {section}{\numberline {3}Analysis Technique}{3}{section.3}\protected@file@percent }
\@writefile{toc}{\contentsline {subsection}{\numberline {3.1}Monte Carlo Simulation}{3}{subsection.3.1}\protected@file@percent }
\@writefile{toc}{\contentsline {subsection}{\numberline {3.2}Source Selection}{3}{subsection.3.2}\protected@file@percent }
\@writefile{toc}{\contentsline {subsection}{\numberline {3.3}Likelihood Methods}{3}{subsection.3.3}\protected@file@percent }
\newlabel{Eq:likelihood_profile}{{1}{3}{Likelihood Methods}{equation.3.1}{}}
\newlabel{Eq:likelihood_profile@cref}{{[equation][1][]1}{[1][3][]3}}
\@writefile{lot}{\contentsline {table}{\numberline {1}{\ignorespaces Summary of the relevant properties of the dSphs used in the present work. Column 1 lists the dSphs. Columns 2 and 3 present their heliocentric distance and galactic coordinates, respectively. Columns 4 and 5 report the \ensuremath  {J}\xspace  -factors of each source given from the \ensuremath  {\mathcal  {GS}}\xspace  and \ensuremath  {\mathcal  {B}}\xspace  independent studies and their estimated $\pm 1\sigma $ uncertainties. The values $\qopname  \relax o{log}_{10}J$\nobreakspace  {}(\ensuremath  {\mathcal  {GS}}\xspace  set) correspond to the mean \ensuremath  {J}\xspace  -factor values for a source extension truncated at the outermost observed star. The values $\qopname  \relax o{log}_{10}J$\nobreakspace  {}(\ensuremath  {\mathcal  {B}}\xspace  set) are provided for a source extension at the tidal radius of each dSph.\relax }}{4}{table.caption.3}\protected@file@percent }
\providecommand*\caption@xref[2]{\@setref\relax\@undefined{#1}}
\newlabel{tab:J_factor}{{1}{4}{Summary of the relevant properties of the dSphs used in the present work. Column 1 lists the dSphs. Columns 2 and 3 present their heliocentric distance and galactic coordinates, respectively. Columns 4 and 5 report the \J -factors of each source given from the \GS and \B independent studies and their estimated $\pm 1\sigma $ uncertainties. The values $\log _{10}J$~(\GS set) correspond to the mean \J -factor values for a source extension truncated at the outermost observed star. The values $\log _{10}J$~(\B set) are provided for a source extension at the tidal radius of each dSph.\relax }{table.caption.3}{}}
\newlabel{tab:J_factor@cref}{{[table][1][]1}{[1][3][]4}}
\@writefile{toc}{\contentsline {section}{\numberline {4}Systematics}{4}{section.4}\protected@file@percent }
\citation{Geringer-Sameth:2014yza}
\citation{Bonnivard:2014kza}
\citation{Bonnivard:2015xpq}
\citation{Geringer-Sameth:2014yza}
\citation{Bonnivard:2014kza}
\citation{Bonnivard:2015xpq}
\citation{Geringer-Sameth:2014yza}
\citation{Bonnivard:2014kza}
\citation{Bonnivard:2015xpq}
\citation{Geringer-Sameth:2014yza}
\citation{Bonnivard:2014kza}
\citation{Bonnivard:2015xpq}
\citation{Ackermann:2015zua}
\citation{Fermi-LAT:2016uux}
\citation{DiMauro:2021qcf}
\citation{Geringer-Sameth:2014yza}
\citation{Bonnivard:2014kza}
\citation{Bonnivard:2015xpq}
\citation{2013PhRvD..88h2002A}
\citation{2015PhRvD..91l2002A}
\citation{HAWC:2019jvm}
\@writefile{lof}{\contentsline {figure}{\numberline {1}{\ignorespaces Illustration of the combination technique showing a comparison of individual $-2\qopname  \relax o{ln}\lambda $ of four dSphs and their sum. The black dotted lines shows a more conservative value of the upper limit on $\langle \sigma v \rangle $ than the ones derived from a single dSph (dotted green lines). We note that each profile depends on the observational conditions in which a target object was observed. The sensitivity of a given instrument can be degraded and the upper limits less constraining if the observations are performed in non optimal conditions, {\it  i.e.} high zenith angle, exposure time.\relax }}{5}{figure.caption.4}\protected@file@percent }
\newlabel{fig:illustration_combination}{{1}{5}{Illustration of the combination technique showing a comparison of individual $-2\ln \lambda $ of four dSphs and their sum. The black dotted lines shows a more conservative value of the upper limit on $\langle \sigma v \rangle $ than the ones derived from a single dSph (dotted green lines). We note that each profile depends on the observational conditions in which a target object was observed. The sensitivity of a given instrument can be degraded and the upper limits less constraining if the observations are performed in non optimal conditions, {\it i.e.} high zenith angle, exposure time.\relax }{figure.caption.4}{}}
\newlabel{fig:illustration_combination@cref}{{[figure][1][]1}{[1][4][]5}}
\@writefile{toc}{\contentsline {section}{\numberline {5}Results and Cross Checks}{5}{section.5}\protected@file@percent }
\@writefile{toc}{\contentsline {section}{\numberline {6}Results}{5}{section.6}\protected@file@percent }
\newlabel{sec:results}{{6}{5}{Results}{section.6}{}}
\newlabel{sec:results@cref}{{[section][6][]6}{[1][5][]5}}
\citation{Geringer-Sameth:2014yza}
\citation{Bertone_2005}
\citation{Geringer-Sameth:2014yza}
\citation{Bertone_2005}
\citation{Bonnivard:2014kza}
\citation{Bonnivard:2015xpq}
\citation{Bonnivard:2014kza}
\citation{Bonnivard:2015xpq}
\citation{Geringer-Sameth:2014yza}
\citation{Bonnivard:2014kza}
\citation{Bonnivard:2015xpq}
\citation{Bertone_2005}
\citation{Geringer-Sameth:2014yza}
\citation{Bonnivard:2014kza}
\citation{Bonnivard:2015xpq}
\citation{Bertone_2005}
\@writefile{lof}{\contentsline {figure}{\numberline {2}{\ignorespaces Comparisons between the \ensuremath  {J}\xspace  factors versus the angular radius for the computation of $J$ factors from Ref.\nobreakspace  {}\cite  {Geringer-Sameth:2014yza} (\ensuremath  {\mathcal  {GS}}\xspace  set in \cref  {tab:J_factor}) in blue and for the computation from Ref.\nobreakspace  {}\cite  {Bonnivard:2014kza, Bonnivard:2015xpq} (\ensuremath  {\mathcal  {B}}\xspace  set in \cref  {tab:J_factor}) in orange. The solid lines represent the central value of the \ensuremath  {J}\xspace  factors while the shaded regions correspond to the 1$\sigma $ standard deviation.\relax }}{6}{figure.caption.5}\protected@file@percent }
\newlabel{fig:comparison_J_1}{{2}{6}{Comparisons between the \J factors versus the angular radius for the computation of $J$ factors from Ref.~\cite {Geringer-Sameth:2014yza} (\GS set in \cref {tab:J_factor}) in blue and for the computation from Ref.~\cite {Bonnivard:2014kza, Bonnivard:2015xpq} (\B set in \cref {tab:J_factor}) in orange. The solid lines represent the central value of the \J factors while the shaded regions correspond to the 1$\sigma $ standard deviation.\relax }{figure.caption.5}{}}
\newlabel{fig:comparison_J_1@cref}{{[figure][2][]2}{[1][5][]6}}
\@writefile{lof}{\contentsline {figure}{\numberline {3}{\ignorespaces Comparisons between the \ensuremath  {J}\xspace  factors versus the angular radius for the computation of $J$ factors from Ref.\nobreakspace  {}\cite  {Geringer-Sameth:2014yza} (\ensuremath  {\mathcal  {GS}}\xspace  set in \cref  {tab:J_factor}) in blue and for the computation from Ref.\nobreakspace  {}\cite  {Bonnivard:2014kza, Bonnivard:2015xpq} (\ensuremath  {\mathcal  {B}}\xspace  set in \cref  {tab:J_factor}) in orange. The solid lines represent the central value of the \ensuremath  {J}\xspace  factors while the shaded regions correspond to the 1$\sigma $ standard deviation.\relax }}{7}{figure.caption.6}\protected@file@percent }
\newlabel{fig:comparison_J_2}{{3}{7}{Comparisons between the \J factors versus the angular radius for the computation of $J$ factors from Ref.~\cite {Geringer-Sameth:2014yza} (\GS set in \cref {tab:J_factor}) in blue and for the computation from Ref.~\cite {Bonnivard:2014kza, Bonnivard:2015xpq} (\B set in \cref {tab:J_factor}) in orange. The solid lines represent the central value of the \J factors while the shaded regions correspond to the 1$\sigma $ standard deviation.\relax }{figure.caption.6}{}}
\newlabel{fig:comparison_J_2@cref}{{[figure][3][]3}{[1][5][]7}}
\@writefile{lof}{\contentsline {figure}{\numberline {4}{\ignorespaces Upper limits at 95\% confidence level on $\langle \sigma \mathit  {v} \rangle $ in function of the DM mass for eight annihilation channels, using the set of $J$ factors from Ref.\nobreakspace  {}\cite  {Geringer-Sameth:2014yza} (\ensuremath  {\mathcal  {GS}}\xspace  set in \cref  {tab:J_factor}). The black solid line represents the observed combined limit, the black dashed line is the median of the null hypothesis corresponding to the expected limit, while the green and yellow bands show the 68\% and 95\% containment bands. Combined upper limits for each individual detector are also indicated as solid, colored lines. The value of the thermal relic cross section in function of the DM mass is given as the red dotted-dashed line\nobreakspace  {}\cite  {Bertone_2005}.\relax }}{8}{figure.caption.7}\protected@file@percent }
\newlabel{fig:limits-geringer-sameth}{{4}{8}{Upper limits at 95\% confidence level on $\sv $ in function of the DM mass for eight annihilation channels, using the set of $J$ factors from Ref.~\cite {Geringer-Sameth:2014yza} (\GS set in \cref {tab:J_factor}). The black solid line represents the observed combined limit, the black dashed line is the median of the null hypothesis corresponding to the expected limit, while the green and yellow bands show the 68\% and 95\% containment bands. Combined upper limits for each individual detector are also indicated as solid, colored lines. The value of the thermal relic cross section in function of the DM mass is given as the red dotted-dashed line~\cite {Bertone_2005}.\relax }{figure.caption.7}{}}
\newlabel{fig:limits-geringer-sameth@cref}{{[figure][4][]4}{[1][6][]8}}
\@writefile{lof}{\contentsline {figure}{\numberline {5}{\ignorespaces Same as \cref  {fig:limits-geringer-sameth}, using the set of $J$ factors from Ref.\nobreakspace  {}\cite  {Bonnivard:2014kza, Bonnivard:2015xpq} (\ensuremath  {\mathcal  {B}}\xspace  set in \cref  {tab:J_factor}).\relax }}{9}{figure.caption.8}\protected@file@percent }
\newlabel{fig:limits-bonnivard}{{5}{9}{Same as \cref {fig:limits-geringer-sameth}, using the set of $J$ factors from Ref.~\cite {Bonnivard:2014kza, Bonnivard:2015xpq} (\B set in \cref {tab:J_factor}).\relax }{figure.caption.8}{}}
\newlabel{fig:limits-bonnivard@cref}{{[figure][5][]5}{[1][6][]9}}
\@writefile{lof}{\contentsline {figure}{\numberline {6}{\ignorespaces Comparisons of the combined limits at 95\% confidence level for each of the eight annihilation channels when using the \ensuremath  {J}\xspace  factors from Ref.\nobreakspace  {}\cite  {Geringer-Sameth:2014yza} (\ensuremath  {\mathcal  {GS}}\xspace  set in \cref  {tab:J_factor}), plain lines, and the \ensuremath  {J}\xspace  factor from Ref.\nobreakspace  {}\cite  {Bonnivard:2014kza, Bonnivard:2015xpq} (\ensuremath  {\mathcal  {B}}\xspace  set in \cref  {tab:J_factor}), dashed lines. The cross section given by the thermal relic is also indicated\nobreakspace  {}\cite  {Bertone_2005}.\relax }}{10}{figure.caption.9}\protected@file@percent }
\newlabel{fig:limits-comparison}{{6}{10}{Comparisons of the combined limits at 95\% confidence level for each of the eight annihilation channels when using the \J factors from Ref.~\cite {Geringer-Sameth:2014yza} (\GS set in \cref {tab:J_factor}), plain lines, and the \J factor from Ref.~\cite {Bonnivard:2014kza, Bonnivard:2015xpq} (\B set in \cref {tab:J_factor}), dashed lines. The cross section given by the thermal relic is also indicated~\cite {Bertone_2005}.\relax }{figure.caption.9}{}}
\newlabel{fig:limits-comparison@cref}{{[figure][6][]6}{[1][6][]10}}
\citation{Bai:2019khm}
\citation{CTAConsortium:2018tzg}
\citation{Abreu:2019ahw}
\bibstyle{ieeetr}
\bibdata{refs}
\bibcite{Albert_2018}{1}
\bibcite{Cirelli_2011}{2}
\bibcite{Geringer_Sameth_2015}{3}
\bibcite{Abeysekara_2017}{4}
\@writefile{toc}{\contentsline {section}{\numberline {7}Discussion and Conclusions}{11}{section.7}\protected@file@percent }
\newlabel{sec:conclusions}{{7}{11}{Discussion and Conclusions}{section.7}{}}
\newlabel{sec:conclusions@cref}{{[section][7][]7}{[1][11][]11}}
\@writefile{toc}{\contentsline {section}{\numberline {8}Discussion}{11}{section.8}\protected@file@percent }
\bibcite{Geringer-Sameth:2014yza}{5}
\bibcite{Bonnivard:2014kza}{6}
\bibcite{Bonnivard:2015xpq}{7}
\bibcite{Ackermann:2015zua}{8}
\bibcite{Fermi-LAT:2016uux}{9}
\bibcite{DiMauro:2021qcf}{10}
\bibcite{2013PhRvD..88h2002A}{11}
\bibcite{2015PhRvD..91l2002A}{12}
\bibcite{HAWC:2019jvm}{13}
\bibcite{Bertone_2005}{14}
\bibcite{Bai:2019khm}{15}
\bibcite{CTAConsortium:2018tzg}{16}
\bibcite{Abreu:2019ahw}{17}
\gdef \@abspage@last{12}
