\contentsline {section}{\numberline {1}Introduction}{2}{section.1}%
\contentsline {section}{\numberline {2}Data and Background}{2}{section.2}%
\contentsline {subsection}{\numberline {2.1}Data Set Chosen}{2}{subsection.2.1}%
\contentsline {subsection}{\numberline {2.2}Background Estimation}{2}{subsection.2.2}%
\contentsline {subsection}{\numberline {2.3}Software Tools and Development}{2}{subsection.2.3}%
\contentsline {section}{\numberline {3}Analysis Technique}{3}{section.3}%
\contentsline {subsection}{\numberline {3.1}Monte Carlo Simulation}{3}{subsection.3.1}%
\contentsline {subsection}{\numberline {3.2}Source Selection}{3}{subsection.3.2}%
\contentsline {subsection}{\numberline {3.3}Likelihood Methods}{3}{subsection.3.3}%
\contentsline {section}{\numberline {4}Systematics}{4}{section.4}%
\contentsline {section}{\numberline {5}Results and Cross Checks}{5}{section.5}%
\contentsline {section}{\numberline {6}Results}{5}{section.6}%
\contentsline {section}{\numberline {7}Discussion and Conclusions}{11}{section.7}%
\contentsline {section}{\numberline {8}Discussion}{11}{section.8}%
